<?xml version="1.0" encoding="UTF-8" standalone="no"?>
<!DOCTYPE svg PUBLIC "-//W3C//DTD SVG 1.1//EN" "http://www.w3.org/Graphics/SVG/1.1/DTD/svg11.dtd">
<svg version="1.1" id="Layer_1" xmlns="http://www.w3.org/2000/svg" xmlns:xlink="http://www.w3.org/1999/xlink" x="0px" y="0px" width="9px" height="12px" viewBox="0 0 9 12" enable-background="new 0 0 9 12" xml:space="preserve">  <image id="image0" width="9" height="12" x="0" y="0"
    xlink:href="data:image/png;base64,iVBORw0KGgoAAAANSUhEUgAAAAkAAAAMBAMAAABCcoqQAAAABGdBTUEAALGPC/xhBQAAACBjSFJN
AAB6JgAAgIQAAPoAAACA6AAAdTAAAOpgAAA6mAAAF3CculE8AAAAJ1BMVEW4vci4vci4vci4vci4
vci4vci4vci4vci4vci4vci4vci4vcj///8m6Y+3AAAAC3RSTlMAM+fIynN0CNIbxpzJs28AAAAB
YktHRAyBs1FjAAAAB3RJTUUH4QwLDB4XXbVL+wAAADdJREFUCNdj2A0EGxiEdu/eJMDAvHv3FgYG
1t27tzEwsHfvbmdgYJi1awKMhIhAZCEqIbrAJgAA8Asb+Tx2wUMAAAAldEVYdGRhdGU6Y3JlYXRl
ADIwMTctMTItMTFUMTI6MzA6MjQrMDM6MDDn07hWAAAAJXRFWHRkYXRlOm1vZGlmeQAyMDE3LTEy
LTExVDEyOjMwOjIzKzAzOjAwUyk+ZAAAABl0RVh0U29mdHdhcmUAQWRvYmUgSW1hZ2VSZWFkeXHJ
ZTwAAAAASUVORK5CYII=" />
</svg>
